oyolasigmaz510EDA
…
And now we want to find the countries that has had data for the longest.

df %>%
  group_by(Country) %>%
  summarise(cnt = n_distinct(Year)) %>%
  arrange(desc(cnt))

## # A tibble: 197 x 2
##    Country               cnt
##    <fct>               <int>
##  1 Afghanistan           216
##  2 Albania               216
##  3 Algeria               216
##  4 Angola                216
##  5 Antigua and Barbuda   216
##  6 Argentina             216
##  7 Armenia               216
##  8 Australia             216
##  9 Austria               216
## 10 Azerbaijan            216
## # ... with 187 more rows

Before going further, we want to find how many missing values are there in the data. Only population and income variables are missing for some of the data.

df %>%
  filter(!is.na(population)) %>%
  group_by(Year) %>%
  count()

## # A tibble: 81 x 2
## # Groups:   Year [81]
##     Year     n
##    <int> <int>
##  1  1800   189
##  2  1810   189
##  3  1820   189
##  4  1830   189
##  5  1840   189
##  6  1850   189
##  7  1860   189
##  8  1870   189
##  9  1880   189
## 10  1890   189
## # ... with 71 more rows

df %>%
  filter(!is.na(income)) %>%
  group_by(Year) %>%
  count()

## # A tibble: 216 x 2
## # Groups:   Year [216]
##     Year     n
##    <int> <int>
##  1  1800   179
##  2  1801   179
##  3  1802   179
##  4  1803   179
##  5  1804   179
##  6  1805   179
##  7  1806   179
##  8  1807   179
##  9  1808   179
## 10  1809   179
## # ... with 206 more rows
…
